#0091-Callaway-Recreational-10-2

#2312-Brdgestone-Professional-12-3

#2342-Wilson-Professional-8-3

#8976-PXG-Recreational-10-4

#1391-TaylorMade-Professional-9-3

#6433-Iron-Infiniti-70-4

#5432-Wedge-Nike-60-5

#7832-Putter-Titleist-82-4

#9843-Driver-Adams-91-5

#4532-Hybrid-Callaway-68-5 
