Large-White-3-#1234-46

Small-Green-2-#1235-21

Large-yellow-3-#1223-59

medium-Grey-2-#1287-23

Large-Blue-2-#2345-30

small-Green-1-#9082-40

Meduium-Blue-2-#1423-50

Large-purple-3-#6565-35

Small-Black-3-#0934-53

medium-White-3-#6432-50


 